<svg width="1612" height="857" viewBox="0 0 1612 857" fill="none" xmlns="http://www.w3.org/2000/svg">
<path d="M2 193C29.3333 169 116.4 118.2 246 107" stroke="white" stroke-width="4"/>
<path d="M541 15C597.667 5.66671 748.2 -7.39996 897 15" stroke="white" stroke-width="4"/>
<path d="M854 854C785.333 855.333 606.4 849.6 440 816" stroke="white" stroke-width="4"/>
<path d="M1224 60C1299.33 70.6667 1459.2 122 1496 242" stroke="white" stroke-width="4"/>
<path d="M1610 708C1593.33 753.333 1496.4 841.6 1242 832" stroke="white" stroke-width="4"/>
</svg>
