<svg width="336" height="86" viewBox="0 0 336 86" fill="none" xmlns="http://www.w3.org/2000/svg">
<path d="M46.6061 13.44C49.2061 12.32 50.7261 10.2 50.7261 7.2C50.7261 2.56 46.9661 -1.90735e-06 40.7261 -1.90735e-06H28.2061V28H41.4861C48.4461 28 52.0861 25.08 52.0861 20.24C52.0861 16.72 50.1261 14.4 46.6061 13.44ZM33.3261 4H40.2861C43.6461 4 45.4461 5.36 45.4461 8C45.4461 10.6 43.6461 11.96 40.2861 11.96H33.3261V4ZM41.3261 24H33.3261V15.76H41.3261C44.9261 15.76 46.8461 17.04 46.8461 19.84C46.8461 22.64 44.9261 24 41.3261 24ZM66.9698 28.28C73.6098 28.28 78.3698 23.72 78.3698 17.32C78.3698 10.92 73.6098 6.4 66.9698 6.4C60.4098 6.4 55.6098 10.92 55.6098 17.32C55.6098 23.72 60.4098 28.28 66.9698 28.28ZM66.9698 24C63.3698 24 60.6498 21.4 60.6498 17.32C60.6498 13.24 63.3698 10.64 66.9698 10.64C70.6098 10.64 73.3298 13.24 73.3298 17.32C73.3298 21.4 70.6098 24 66.9698 24ZM95.7567 16.88C97.9567 16 99.3567 14.28 99.3567 12.2C99.3567 8.68 95.3567 6.32 89.8767 6.32C87.0767 6.32 84.3167 6.92 81.3967 8.28L82.6767 11.96C85.0367 10.92 87.2767 10.4 89.4367 10.4C92.4367 10.4 94.2367 11.36 94.2367 12.92C94.2367 14.48 92.7567 15.36 90.2367 15.36H86.4767V18.72H90.6367C93.3167 18.72 94.8367 19.64 94.8367 21.32C94.8367 23.16 92.7967 24.24 89.4767 24.24C86.8367 24.24 84.1167 23.56 82.0367 22.4L80.5967 26.12C83.1567 27.56 86.4367 28.36 89.7167 28.36C95.6767 28.36 99.9567 25.68 99.9567 21.72C99.9567 19.36 98.3967 17.64 95.7567 16.88ZM130.626 28L130.586 6.64H125.906L117.946 20L110.346 6.64H105.106V28H109.666V13.8L116.746 25.76H118.906L126.106 13.84V28H130.626ZM146.853 28.28C153.493 28.28 158.253 23.72 158.253 17.32C158.253 10.92 153.493 6.4 146.853 6.4C140.293 6.4 135.493 10.92 135.493 17.32C135.493 23.72 140.293 28.28 146.853 28.28ZM146.853 24C143.253 24 140.533 21.4 140.533 17.32C140.533 13.24 143.253 10.64 146.853 10.64C150.493 10.64 153.213 13.24 153.213 17.32C153.213 21.4 150.493 24 146.853 24ZM187.969 28H193.929L186.889 16.96L193.369 6.64H188.049L182.809 15.28H179.169V6.64H174.209V15.28H170.529L165.329 6.64H160.009L166.489 16.96L159.489 28H165.409L170.609 19.44H174.209V28H179.169V19.44H182.769L187.969 28ZM197.645 28H202.645V19.56H213.405V28H218.405V6.64H213.405V15.32H202.645V6.64H197.645V28ZM234.626 28.28C241.266 28.28 246.026 23.72 246.026 17.32C246.026 10.92 241.266 6.4 234.626 6.4C228.066 6.4 223.266 10.92 223.266 17.32C223.266 23.72 228.066 28.28 234.626 28.28ZM234.626 24C231.026 24 228.306 21.4 228.306 17.32C228.306 13.24 231.026 10.64 234.626 10.64C238.266 10.64 240.986 13.24 240.986 17.32C240.986 21.4 238.266 24 234.626 24ZM260.685 28.28C264.845 28.28 268.165 26.48 269.805 23.28L265.965 21.04C264.685 23.08 262.765 24 260.645 24C256.965 24 254.165 21.48 254.165 17.32C254.165 13.2 256.965 10.64 260.645 10.64C262.765 10.64 264.685 11.56 265.965 13.6L269.805 11.36C268.165 8.12 264.845 6.4 260.685 6.4C253.925 6.4 249.125 10.92 249.125 17.32C249.125 23.72 253.925 28.28 260.685 28.28ZM290.932 6.64H270.932V10.88H278.452V28H283.452V10.88H290.932V6.64ZM305.279 13.68L299.559 13.64V6.64H294.559V28L304.559 28.04C310.399 28.08 313.719 25.4 313.719 20.72C313.719 16.28 310.759 13.68 305.279 13.68ZM304.119 24.36L299.559 24.32V17.08L304.119 17.12C307.079 17.16 308.639 18.2 308.639 20.64C308.639 23.12 307.039 24.4 304.119 24.36ZM19.2356 55.64L12.4756 71.44L5.75563 55.64H0.555625L9.87563 77.08L9.51563 77.92C8.55563 80.04 7.51563 80.88 5.75563 80.88C4.39563 80.88 3.03563 80.32 2.07563 79.4L0.075625 83.08C1.43563 84.32 3.67563 85.04 5.79562 85.04C9.35563 85.04 12.0756 83.56 14.0356 78.72L24.0356 55.64H19.2356ZM40.6284 55.64V65C38.9084 65.8 37.0284 66.2 35.2684 66.2C32.3884 66.2 30.6684 64.96 30.6684 62.16V55.64H25.6684V62.48C25.6684 67.8 28.7884 70.2 34.1884 70.2C36.5484 70.2 38.7084 69.64 40.6284 68.72V77H45.6284V55.64H40.6284ZM52.3522 77H56.9522L68.7122 62.92V77H73.7122V55.64H69.1522L57.3522 69.72V55.64H52.3522V77ZM97.3581 55.64H77.3581V59.88H84.8781V77H89.8781V59.88H97.3581V55.64ZM111.705 62.68L105.985 62.64V55.64H100.985V77L110.985 77.04C116.825 77.08 120.145 74.4 120.145 69.72C120.145 65.28 117.185 62.68 111.705 62.68ZM110.545 73.36L105.985 73.32V66.08L110.545 66.12C113.505 66.16 115.065 67.2 115.065 69.64C115.065 72.12 113.465 73.4 110.545 73.36ZM134.26 77.28C138.42 77.28 141.74 75.48 143.38 72.28L139.54 70.04C138.26 72.08 136.34 73 134.22 73C130.54 73 127.74 70.48 127.74 66.32C127.74 62.2 130.54 59.64 134.22 59.64C136.34 59.64 138.26 60.56 139.54 62.6L143.38 60.36C141.74 57.12 138.42 55.4 134.26 55.4C127.5 55.4 122.7 59.92 122.7 66.32C122.7 72.72 127.5 77.28 134.26 77.28ZM155.436 55.64C149.476 55.64 145.676 58.32 145.676 63.32C145.676 66.6 147.396 68.84 150.436 69.88L145.396 77H150.756L155.116 70.56H160.756V77H165.236V55.64H155.436ZM155.596 59.84H160.756V67.08H155.436C152.356 67.08 150.756 65.96 150.756 63.48C150.756 60.92 152.516 59.84 155.596 59.84ZM192.536 77.28C199.176 77.28 203.936 72.72 203.936 66.32C203.936 59.92 199.176 55.4 192.536 55.4C185.976 55.4 181.176 59.92 181.176 66.32C181.176 72.72 185.976 77.28 192.536 77.28ZM192.536 73C188.936 73 186.216 70.4 186.216 66.32C186.216 62.24 188.936 59.64 192.536 59.64C196.176 59.64 198.896 62.24 198.896 66.32C198.896 70.4 196.176 73 192.536 73ZM208.876 77H213.876V68.56H224.636V77H229.636V55.64H224.636V64.32H213.876V55.64H208.876V77ZM238.417 55.64L238.057 63.88C237.817 68.32 237.697 72.88 234.417 72.88C234.137 72.88 233.817 72.84 233.457 72.76L233.217 76.96C234.257 77.24 235.177 77.4 235.977 77.4C241.017 77.4 242.137 71.72 242.497 64.12L242.697 59.88H250.697V77H255.697V55.64H238.417ZM270.39 55.4C266.95 55.4 263.63 56.28 261.35 58.04L263.31 61.68C264.91 60.36 267.39 59.56 269.79 59.56C273.35 59.56 275.11 61.28 275.11 64.2V64.52H269.59C263.11 64.52 260.71 67.32 260.71 70.88C260.71 74.6 263.79 77.28 268.67 77.28C271.87 77.28 274.19 76.24 275.39 74.4V77H280.11V64.48C280.11 58.32 276.55 55.4 270.39 55.4ZM269.71 73.64C267.15 73.64 265.63 72.48 265.63 70.68C265.63 69.12 266.55 67.84 269.95 67.84H275.11V70.32C274.27 72.52 272.15 73.64 269.71 73.64ZM296.658 53.12C300.938 53.12 303.298 51.12 303.378 47.24H299.978C299.938 49.16 298.658 50.36 296.618 50.36C294.538 50.36 293.338 49.16 293.298 47.24H289.978C290.018 51.12 292.378 53.12 296.658 53.12ZM286.298 77H290.898L302.658 62.92V77H307.658V55.64H303.098L291.298 69.72V55.64H286.298V77ZM314.383 77H319.383V68.56H330.143V77H335.143V55.64H330.143V64.32H319.383V55.64H314.383V77Z" fill="white"/>
</svg>
