<svg width="375" height="84" viewBox="0 0 375 84" fill="none" xmlns="http://www.w3.org/2000/svg">
<path d="M0.893594 30H5.73359L20.7736 10.16V30H25.8936V2H21.0536L6.01359 21.88V2H0.893594V30ZM33.1842 30H38.1842V21.56H48.9442V30H53.9442V8.64H48.9442V17.32H38.1842V8.64H33.1842V30ZM80.2852 25.76V8.64H62.6852L62.4052 15.96C62.1652 20.96 61.6452 25.64 58.6452 25.76H57.6452V34.76H62.2852V30H78.7652V34.76H83.4452V25.76H80.2852ZM66.9652 16.32L67.0852 12.88H75.2852V25.76H64.7652C66.4852 24.12 66.8052 20.32 66.9652 16.32ZM87.9108 30H92.5108L104.271 15.92V30H109.271V8.64H104.711L92.9108 22.72V8.64H87.9108V30ZM131.477 18.88C133.517 18 134.757 16.36 134.757 14.16C134.757 10.64 131.637 8.64 126.437 8.64H115.997V30H126.877C132.637 30 135.437 27.76 135.437 24C135.437 21.4 134.117 19.68 131.477 18.88ZM120.757 12.28H125.997C128.557 12.28 129.877 13.12 129.877 14.88C129.877 16.64 128.557 17.56 125.997 17.56H120.757V12.28ZM126.477 26.36H120.757V20.88H126.637C129.357 20.88 130.597 21.8 130.597 23.68C130.597 25.52 129.157 26.36 126.477 26.36ZM140.762 30H145.362L157.122 15.92V30H162.122V8.64H157.562L145.762 22.72V8.64H140.762V30ZM188.488 25.76V8.64H170.888L170.608 15.96C170.368 20.96 169.848 25.64 166.848 25.76H165.848V34.76H170.488V30H186.968V34.76H191.648V25.76H188.488ZM175.168 16.32L175.288 12.88H183.488V25.76H172.968C174.688 24.12 175.008 20.32 175.168 16.32ZM211.474 8.64L204.714 24.44L197.994 8.64H192.794L202.114 30.08L201.754 30.92C200.794 33.04 199.754 33.88 197.994 33.88C196.634 33.88 195.274 33.32 194.314 32.4L192.314 36.08C193.674 37.32 195.914 38.04 198.034 38.04C201.594 38.04 204.314 36.56 206.274 31.72L216.274 8.64H211.474ZM227.043 8.4C223.603 8.4 220.283 9.28 218.003 11.04L219.963 14.68C221.563 13.36 224.043 12.56 226.443 12.56C230.003 12.56 231.763 14.28 231.763 17.2V17.52H226.243C219.763 17.52 217.363 20.32 217.363 23.88C217.363 27.6 220.443 30.28 225.323 30.28C228.523 30.28 230.843 29.24 232.043 27.4V30H236.763V17.48C236.763 11.32 233.203 8.4 227.043 8.4ZM226.363 26.64C223.803 26.64 222.283 25.48 222.283 23.68C222.283 22.12 223.203 20.84 226.603 20.84H231.763V23.32C230.923 25.52 228.803 26.64 226.363 26.64ZM245.03 8.64L244.67 16.88C244.43 21.32 244.31 25.88 241.03 25.88C240.75 25.88 240.43 25.84 240.07 25.76L239.83 29.96C240.87 30.24 241.79 30.4 242.59 30.4C247.63 30.4 248.75 24.72 249.11 17.12L249.31 12.88H257.31V30H262.31V8.64H245.03ZM279.764 15.68L274.044 15.64V8.64H269.044V30L279.044 30.04C284.884 30.08 288.204 27.4 288.204 22.72C288.204 18.28 285.244 15.68 279.764 15.68ZM278.604 26.36L274.044 26.32V19.08L278.604 19.12C281.564 19.16 283.124 20.2 283.124 22.64C283.124 25.12 281.524 26.4 278.604 26.36ZM292.598 30H297.598V21.56H308.358V30H313.358V8.64H308.358V17.32H297.598V8.64H292.598V30ZM330.459 15.68L325.059 15.64V8.64H320.059V30L329.739 30.04C335.579 30.08 338.859 27.4 338.859 22.72C338.859 18.28 335.939 15.68 330.459 15.68ZM341.619 30H346.619V8.64H341.619V30ZM329.299 26.36L325.059 26.32V19.08L329.299 19.12C332.259 19.16 333.819 20.2 333.819 22.64C333.819 25.12 332.219 26.4 329.299 26.36ZM363.7 6.12C367.98 6.12 370.34 4.12 370.42 0.239999H367.02C366.98 2.16 365.7 3.36 363.66 3.36C361.58 3.36 360.38 2.16 360.34 0.239999H357.02C357.06 4.12 359.42 6.12 363.7 6.12ZM353.34 30H357.94L369.7 15.92V30H374.7V8.64H370.14L358.34 22.72V8.64H353.34V30ZM113.419 57.64V79H118.419V61.88H128.939V79H133.899V57.64H113.419ZM150.165 79.28C156.805 79.28 161.565 74.72 161.565 68.32C161.565 61.92 156.805 57.4 150.165 57.4C143.605 57.4 138.805 61.92 138.805 68.32C138.805 74.72 143.605 79.28 150.165 79.28ZM150.165 75C146.565 75 143.845 72.4 143.845 68.32C143.845 64.24 146.565 61.64 150.165 61.64C153.805 61.64 156.525 64.24 156.525 68.32C156.525 72.4 153.805 75 150.165 75ZM185.91 74.76V57.64H168.31L168.03 64.96C167.79 69.96 167.27 74.64 164.27 74.76H163.27V83.76H167.91V79H184.39V83.76H189.07V74.76H185.91ZM172.59 65.32L172.71 61.88H180.91V74.76H170.39C172.11 73.12 172.43 69.32 172.59 65.32ZM212.536 79L204.176 68.08L212.176 57.64H206.776L201.536 64.64L196.296 57.64H190.736L198.696 68.16L190.376 79H195.896L201.416 71.6L206.896 79H212.536ZM224.931 79.28C231.571 79.28 236.331 74.72 236.331 68.32C236.331 61.92 231.571 57.4 224.931 57.4C218.371 57.4 213.571 61.92 213.571 68.32C213.571 74.72 218.371 79.28 224.931 79.28ZM224.931 75C221.331 75 218.611 72.4 218.611 68.32C218.611 64.24 221.331 61.64 224.931 61.64C228.571 61.64 231.291 64.24 231.291 68.32C231.291 72.4 228.571 75 224.931 75ZM260.676 74.76V57.64H243.076L242.796 64.96C242.556 69.96 242.036 74.64 239.036 74.76H238.036V83.76H242.676V79H259.156V83.76H263.836V74.76H260.676ZM247.356 65.32L247.476 61.88H255.676V74.76H245.156C246.876 73.12 247.196 69.32 247.356 65.32Z" fill="white"/>
</svg>
