<svg width="340" height="40" viewBox="0 0 340 40" fill="none" xmlns="http://www.w3.org/2000/svg">
<path d="M12.0103 4H0.490313V32H5.69031V23.92H12.0103C19.3703 23.92 23.9303 20.12 23.9303 13.96C23.9303 7.76 19.3703 4 12.0103 4ZM11.7703 19.52H5.69031V8.4H11.7703C16.3303 8.4 18.6903 10.44 18.6903 13.96C18.6903 17.48 16.3303 19.52 11.7703 19.52ZM36.0544 10.4C32.6144 10.4 29.2944 11.28 27.0144 13.04L28.9744 16.68C30.5744 15.36 33.0544 14.56 35.4544 14.56C39.0144 14.56 40.7744 16.28 40.7744 19.2V19.52H35.2544C28.7744 19.52 26.3744 22.32 26.3744 25.88C26.3744 29.6 29.4544 32.28 34.3344 32.28C37.5344 32.28 39.8544 31.24 41.0544 29.4V32H45.7744V19.48C45.7744 13.32 42.2144 10.4 36.0544 10.4ZM35.3744 28.64C32.8144 28.64 31.2944 27.48 31.2944 25.68C31.2944 24.12 32.2144 22.84 35.6144 22.84H40.7744V25.32C39.9344 27.52 37.8144 28.64 35.3744 28.64ZM64.4481 20.88C66.6481 20 68.0481 18.28 68.0481 16.2C68.0481 12.68 64.0481 10.32 58.5681 10.32C55.7681 10.32 53.0081 10.92 50.0881 12.28L51.3681 15.96C53.7281 14.92 55.9681 14.4 58.1281 14.4C61.1281 14.4 62.9281 15.36 62.9281 16.92C62.9281 18.48 61.4481 19.36 58.9281 19.36H55.1681V22.72H59.3281C62.0081 22.72 63.5281 23.64 63.5281 25.32C63.5281 27.16 61.4881 28.24 58.1681 28.24C55.5281 28.24 52.8081 27.56 50.7281 26.4L49.2881 30.12C51.8481 31.56 55.1281 32.36 58.4081 32.36C64.3681 32.36 68.6481 29.68 68.6481 25.72C68.6481 23.36 67.0881 21.64 64.4481 20.88ZM85.3575 11.68C82.0775 11.68 79.2775 13 77.3975 15.28C77.8375 10.64 80.2775 8.24 85.4375 7.16L94.4375 5.32L93.7175 0.839998L83.7975 2.96C76.1975 4.56 72.5975 9.56 72.5975 18.12C72.5975 27.44 76.9175 32.4 84.2375 32.4C90.9575 32.4 95.6375 28.2 95.6375 21.92C95.6375 15.88 91.4775 11.68 85.3575 11.68ZM84.3575 28.36C80.6775 28.36 78.1175 25.76 78.1175 22.04C78.1175 18.32 80.6375 15.92 84.3575 15.92C88.0375 15.92 90.5175 18.32 90.5175 22.04C90.5175 25.72 88.0375 28.36 84.3575 28.36ZM109.997 32.28C116.637 32.28 121.397 27.72 121.397 21.32C121.397 14.92 116.637 10.4 109.997 10.4C103.437 10.4 98.6372 14.92 98.6372 21.32C98.6372 27.72 103.437 32.28 109.997 32.28ZM109.997 28C106.397 28 103.677 25.4 103.677 21.32C103.677 17.24 106.397 14.64 109.997 14.64C113.637 14.64 116.357 17.24 116.357 21.32C116.357 25.4 113.637 28 109.997 28ZM138.177 10.4C135.257 10.4 132.777 11.4 131.097 13.44V10.64H126.337V39.76H131.337V29.4C133.057 31.36 135.457 32.28 138.177 32.28C144.417 32.28 149.017 27.96 149.017 21.32C149.017 14.72 144.417 10.4 138.177 10.4ZM137.617 28C134.017 28 131.257 25.4 131.257 21.32C131.257 17.24 134.017 14.64 137.617 14.64C141.217 14.64 143.937 17.24 143.937 21.32C143.937 25.4 141.217 28 137.617 28ZM177.808 20.88C180.008 20 181.408 18.28 181.408 16.2C181.408 12.68 177.408 10.32 171.928 10.32C169.128 10.32 166.368 10.92 163.448 12.28L164.728 15.96C167.088 14.92 169.328 14.4 171.488 14.4C174.488 14.4 176.288 15.36 176.288 16.92C176.288 18.48 174.808 19.36 172.288 19.36H168.528V22.72H172.688C175.368 22.72 176.888 23.64 176.888 25.32C176.888 27.16 174.848 28.24 171.528 28.24C168.888 28.24 166.168 27.56 164.088 26.4L162.648 30.12C165.208 31.56 168.488 32.36 171.768 32.36C177.728 32.36 182.008 29.68 182.008 25.72C182.008 23.36 180.448 21.64 177.808 20.88ZM195.117 10.4C191.677 10.4 188.357 11.28 186.077 13.04L188.037 16.68C189.637 15.36 192.117 14.56 194.517 14.56C198.077 14.56 199.837 16.28 199.837 19.2V19.52H194.317C187.837 19.52 185.437 22.32 185.437 25.88C185.437 29.6 188.517 32.28 193.397 32.28C196.597 32.28 198.917 31.24 200.117 29.4V32H204.837V19.48C204.837 13.32 201.277 10.4 195.117 10.4ZM194.437 28.64C191.877 28.64 190.357 27.48 190.357 25.68C190.357 24.12 191.277 22.84 194.677 22.84H199.837V25.32C198.997 27.52 196.877 28.64 194.437 28.64ZM230.664 27.76V10.64H213.064L212.784 17.96C212.544 22.96 212.024 27.64 209.024 27.76H208.024V36.76H212.664V32H229.144V36.76H233.824V27.76H230.664ZM217.344 18.32L217.464 14.88H225.664V27.76H215.144C216.864 26.12 217.184 22.32 217.344 18.32ZM246.25 10.4C242.81 10.4 239.49 11.28 237.21 13.04L239.17 16.68C240.77 15.36 243.25 14.56 245.65 14.56C249.21 14.56 250.97 16.28 250.97 19.2V19.52H245.45C238.97 19.52 236.57 22.32 236.57 25.88C236.57 29.6 239.65 32.28 244.53 32.28C247.73 32.28 250.05 31.24 251.25 29.4V32H255.97V19.48C255.97 13.32 252.41 10.4 246.25 10.4ZM245.57 28.64C243.01 28.64 241.49 27.48 241.49 25.68C241.49 24.12 242.41 22.84 245.81 22.84H250.97V25.32C250.13 27.52 248.01 28.64 245.57 28.64ZM262.157 32H267.157V23.56H277.917V32H282.917V10.64H277.917V19.32H267.157V10.64H262.157V32ZM289.618 32H294.218L305.978 17.92V32H310.978V10.64H306.418L294.618 24.72V10.64H289.618V32ZM328.064 8.12C332.344 8.12 334.704 6.12 334.784 2.24H331.384C331.344 4.16 330.064 5.36 328.024 5.36C325.944 5.36 324.744 4.16 324.704 2.24H321.384C321.424 6.12 323.784 8.12 328.064 8.12ZM317.704 32H322.304L334.064 17.92V32H339.064V10.64H334.504L322.704 24.72V10.64H317.704V32Z" fill="white"/>
</svg>
