<svg width="41" height="69" viewBox="0 0 41 69" fill="none" xmlns="http://www.w3.org/2000/svg">
<path d="M2.24805 2.53849C1.68797 3.09742 1.24362 3.76133 0.940438 4.49221C0.637259 5.22309 0.481201 6.00659 0.481201 6.79786C0.481201 7.58913 0.637259 8.37263 0.940438 9.10351C1.24362 9.83439 1.68797 10.4983 2.24805 11.0572L25.6897 34.4989L2.24805 57.9406C1.1184 59.0702 0.483759 60.6024 0.483759 62.1999C0.483759 63.7975 1.1184 65.3297 2.24805 66.4593C3.37771 67.589 4.90985 68.2236 6.50743 68.2236C8.105 68.2236 9.63715 67.589 10.7668 66.4593L38.4981 38.7281C39.0581 38.1691 39.5025 37.5052 39.8057 36.7743C40.1088 36.0435 40.2649 35.26 40.2649 34.4687C40.2649 33.6774 40.1088 32.8939 39.8057 32.163C39.5025 31.4322 39.0581 30.7683 38.4981 30.2093L10.7668 2.47807C8.47097 0.182234 4.6043 0.182236 2.24805 2.53849Z" fill="white"/>
</svg>
